\relax 
\providecommand\hyper@newdestlabel[2]{}
\providecommand\HyperFirstAtBeginDocument{\AtBeginDocument}
\HyperFirstAtBeginDocument{\ifx\hyper@anchor\@undefined
\global\let\oldcontentsline\contentsline
\gdef\contentsline#1#2#3#4{\oldcontentsline{#1}{#2}{#3}}
\global\let\oldnewlabel\newlabel
\gdef\newlabel#1#2{\newlabelxx{#1}#2}
\gdef\newlabelxx#1#2#3#4#5#6{\oldnewlabel{#1}{{#2}{#3}}}
\AtEndDocument{\ifx\hyper@anchor\@undefined
\let\contentsline\oldcontentsline
\let\newlabel\oldnewlabel
\fi}
\fi}
\global\let\hyper@last\relax 
\gdef\HyperFirstAtBeginDocument#1{#1}
\providecommand\HyField@AuxAddToFields[1]{}
\providecommand\HyField@AuxAddToCoFields[2]{}
\citation{pinedo_scheduling_2012}
\citation{klein_scheduling_2000}
\citation{grivault_agent-based_2016}
\citation{kemkemian_toward_2010}
\citation{imai_airplane_2017}
\citation{schwindt_handbook_2015}
\citation{cormen_introduction_2001,kahn_topological_1962}
\providecommand\tcolorbox@label[2]{}
\@writefile{toc}{\contentsline {section}{\numberline {I}Introduction}{1}{section.1}}
\newlabel{introduction}{{I}{1}{Introduction}{section.1}{}}
\@writefile{toc}{\contentsline {section}{\numberline {II}Case studies}{1}{section.2}}
\newlabel{Case studies}{{II}{1}{Case studies}{section.2}{}}
\@writefile{toc}{\contentsline {section}{\numberline {III}Definitions}{1}{section.3}}
\newlabel{Definitions}{{III}{1}{Definitions}{section.3}{}}
\newlabel{def:topological_sorting}{{3}{1}{Topological Sort}{defn.3}{}}
\citation{schwindt_handbook_2015}
\citation{graham_optimization_1979}
\@writefile{lof}{\contentsline {figure}{\numberline {1}{\ignorespaces A Directed Acyclic Graph.\relax }}{2}{figure.caption.1}}
\providecommand*\caption@xref[2]{\@setref\relax\@undefined{#1}}
\newlabel{fig:dag_example}{{1}{2}{A Directed Acyclic Graph.\relax }{figure.caption.1}{}}
\@writefile{lof}{\contentsline {figure}{\numberline {2}{\ignorespaces A possible topological sorting for the DAG in Figure\nobreakspace  {}\ref  {fig:dag_example}.\relax }}{2}{figure.caption.2}}
\newlabel{fig:dag_topological_sorting_example}{{2}{2}{A possible topological sorting for the DAG in Figure~\ref {fig:dag_example}.\relax }{figure.caption.2}{}}
\@writefile{toc}{\contentsline {section}{\numberline {IV}Problem statement}{2}{section.4}}
\newlabel{Problem statement}{{IV}{2}{Problem statement}{section.4}{}}
\@writefile{toc}{\contentsline {subsection}{\numberline {\unhbox \voidb@x \hbox {IV-A}}Constraints}{2}{subsection.4.1}}
\newlabel{Temporal constraints}{{\unhbox \voidb@x \hbox {IV-A}1}{2}{Temporal constraints}{subsubsection.4.1.1}{}}
\@writefile{toc}{\contentsline {subsubsection}{\numberline {\unhbox \voidb@x \hbox {IV-A}1}Temporal constraints}{2}{subsubsection.4.1.1}}
\newlabel{eq:initial_starting_time}{{1}{2}{Temporal constraints}{equation.4.1}{}}
\@writefile{toc}{\contentsline {subsubsection}{\numberline {\unhbox \voidb@x \hbox {IV-A}2}Precedence constraints}{2}{subsubsection.4.1.2}}
\@writefile{toc}{\contentsline {subsubsection}{\numberline {\unhbox \voidb@x \hbox {IV-A}3}Resource constraints}{2}{subsubsection.4.1.3}}
\citation{brucker_resource-constrained_1999}
\citation{artigues_resource-constrained_2007}
\@writefile{toc}{\contentsline {subsection}{\numberline {\unhbox \voidb@x \hbox {IV-B}}Classification and mathematical formulation}{3}{subsection.4.2}}
\newlabel{eq:scheduled_plan_condition}{{2}{3}{Classification and mathematical formulation}{equation.4.2}{}}
\newlabel{eq:task_in_good_boundaries}{{3}{3}{Classification and mathematical formulation}{equation.4.3}{}}
\newlabel{eq:precedence_constraints}{{4}{3}{Classification and mathematical formulation}{equation.4.4}{}}
\newlabel{eq:resource_constraints}{{5}{3}{Classification and mathematical formulation}{equation.4.5}{}}
\@writefile{toc}{\contentsline {section}{\numberline {V}Proposed method}{3}{section.5}}
\newlabel{Proposed method}{{V}{3}{Proposed method}{section.5}{}}
\newlabel{example_1}{{1}{3}{}{exmp.1}{}}
\citation{artigues_resource-constrained_2007}
\@writefile{lot}{\contentsline {table}{\numberline {I}{\ignorespaces The parameters of the tasks of the plans $\Pi _1$ and $\Pi _2$ in the Example\nobreakspace  {}\ref  {example_1}.\relax }}{4}{table.caption.3}}
\newlabel{table:example_1_table}{{I}{4}{The parameters of the tasks of the plans $\Pi _1$ and $\Pi _2$ in the Example~\ref {example_1}.\relax }{table.caption.3}{}}
\@writefile{lof}{\contentsline {figure}{\numberline {3}{\ignorespaces A feasible schedule for the set $\mathcal  {P}$ of two plans. A precedence constraint occurs between $J^2_1$ and $J^2_2$.\relax }}{4}{figure.caption.4}}
\newlabel{fig:wrong_precedence}{{3}{4}{A feasible schedule for the set $\mathcal {P}$ of two plans. A precedence constraint occurs between $J^2_1$ and $J^2_2$.\relax }{figure.caption.4}{}}
\@writefile{lof}{\contentsline {figure}{\numberline {4}{\ignorespaces The time window $[C^p_j, s^k_i]$ is an idle time because $J^q_l \in \Pi _q$ can be scheduled in this interval.\relax }}{4}{figure.caption.5}}
\newlabel{fig:idle_time_definition}{{4}{4}{The time window $[C^p_j, s^k_i]$ is an idle time because $J^q_l \in \Pi _q$ can be scheduled in this interval.\relax }{figure.caption.5}{}}
\@writefile{lot}{\contentsline {table}{\numberline {II}{\ignorespaces The parameters of the tasks of a set $\mathcal  {P}$ of $4$ plans.\relax }}{4}{table.caption.6}}
\newlabel{table:plans_with_same_priority_data}{{II}{4}{The parameters of the tasks of a set $\mathcal {P}$ of $4$ plans.\relax }{table.caption.6}{}}
\newlabel{example_idle_time}{{2}{4}{}{exmp.2}{}}
\citation{cormen_introduction_2001}
\newlabel{fig:dead_times_plan01}{{5a}{5}{\relax }{figure.caption.7}{}}
\newlabel{sub@fig:dead_times_plan01}{{a}{5}{\relax }{figure.caption.7}{}}
\newlabel{fig:dead_times_plan02}{{5b}{5}{\relax }{figure.caption.7}{}}
\newlabel{sub@fig:dead_times_plan02}{{b}{5}{\relax }{figure.caption.7}{}}
\newlabel{fig:dead_times_plan03}{{5c}{5}{\relax }{figure.caption.7}{}}
\newlabel{sub@fig:dead_times_plan03}{{c}{5}{\relax }{figure.caption.7}{}}
\@writefile{lof}{\contentsline {figure}{\numberline {5}{\ignorespaces Scheduling plans with the same priority value into a schedule with two plans schedule (Figure\nobreakspace  {}\ref  {fig:dead_times_plan01}). Scheduling plan $\Pi _3$ before plan $\Pi _4$ (Figure\nobreakspace  {}\ref  {fig:dead_times_plan02}) leads to a schedule with an idle time of 2, since in the interval $[2,4]$ the task $J^4_1$ of the feasible plan $\Pi _4$ can be scheduled. Scheduling plan $\Pi _4$ before $\Pi _3$ (Figure\nobreakspace  {}\ref  {fig:dead_times_plan03}) leads to a schedule with an idle time of 0. Therefore, $\Pi _3$ is scheduled before $\Pi _4$.\relax }}{5}{figure.caption.7}}
\newlabel{fig:dead_times_example}{{5}{5}{Scheduling plans with the same priority value into a schedule with two plans schedule (Figure~\ref {fig:dead_times_plan01}). Scheduling plan $\Pi _3$ before plan $\Pi _4$ (Figure~\ref {fig:dead_times_plan02}) leads to a schedule with an idle time of 2, since in the interval $[2,4]$ the task $J^4_1$ of the feasible plan $\Pi _4$ can be scheduled. Scheduling plan $\Pi _4$ before $\Pi _3$ (Figure~\ref {fig:dead_times_plan03}) leads to a schedule with an idle time of 0. Therefore, $\Pi _3$ is scheduled before $\Pi _4$.\relax }{figure.caption.7}{}}
\@writefile{toc}{\contentsline {subsection}{\numberline {\unhbox \voidb@x \hbox {V-A}}Description of the heuristic}{5}{subsection.5.1}}
\newlabel{Description of the algorithm}{{\unhbox \voidb@x \hbox {V-A}}{5}{Description of the heuristic}{subsection.5.1}{}}
\citation{peters_timsort_2002}
\@writefile{loa}{\contentsline {algorithm}{\numberline {1}{\ignorespaces BuildSchedule\relax }}{6}{algorithm.1}}
\newlabel{alg:scheduleMain}{{1}{6}{BuildSchedule\relax }{algorithm.1}{}}
\newlabel{alg_desc:xs_init}{{1}{6}{BuildSchedule\relax }{ALC@unique.1}{}}
\newlabel{alg_desc:xf_init}{{2}{6}{BuildSchedule\relax }{ALC@unique.2}{}}
\newlabel{alg_desc:Sl_init}{{3}{6}{BuildSchedule\relax }{ALC@unique.3}{}}
\newlabel{alg_desc:Sw_init}{{4}{6}{BuildSchedule\relax }{ALC@unique.4}{}}
\newlabel{alg_desc:EL_init}{{5}{6}{BuildSchedule\relax }{ALC@unique.5}{}}
\newlabel{alg_desc:sort_set_of_plans}{{6}{6}{BuildSchedule\relax }{ALC@unique.6}{}}
\newlabel{alg_desc:alg_main_loop}{{7}{6}{BuildSchedule\relax }{ALC@unique.7}{}}
\newlabel{alg_desc:alg_main_pop_plan}{{8}{6}{BuildSchedule\relax }{ALC@unique.8}{}}
\newlabel{alg_desc:alg_main_get_number_of_plan_with_priority_alpha_k}{{9}{6}{BuildSchedule\relax }{ALC@unique.9}{}}
\newlabel{alg_desc:alg_main_check_priority}{{10}{6}{BuildSchedule\relax }{ALC@unique.10}{}}
\newlabel{alg_desc:alg_main_schedule_single_plan}{{11}{6}{BuildSchedule\relax }{ALC@unique.11}{}}
\newlabel{alg_desc:alg_main_check_plan_scheduled}{{12}{6}{BuildSchedule\relax }{ALC@unique.12}{}}
\newlabel{alg_desc:alg_main_add_to_Ps}{{13}{6}{BuildSchedule\relax }{ALC@unique.13}{}}
\newlabel{alg_desc:alg_main_remove_from_S_w}{{15}{6}{BuildSchedule\relax }{ALC@unique.15}{}}
\newlabel{alg_desc:alg_main_get_plans_with_same_priority}{{18}{6}{BuildSchedule\relax }{ALC@unique.18}{}}
\newlabel{alg_desc:alg_main_schedule_plans_with_same_priority}{{19}{6}{BuildSchedule\relax }{ALC@unique.19}{}}
\newlabel{alg_desc:alg_main_add_successful_plans_to_solution}{{20}{6}{BuildSchedule\relax }{ALC@unique.20}{}}
\newlabel{alg_desc:alg_main_remove_plans_from_input_list}{{21}{6}{BuildSchedule\relax }{ALC@unique.21}{}}
\newlabel{alg_desc:alg_main_remove_unscheduled_from_solution}{{22}{6}{BuildSchedule\relax }{ALC@unique.22}{}}
\newlabel{alg_desc:alg_main_update_feasible_solution}{{24}{6}{BuildSchedule\relax }{ALC@unique.24}{}}
\newlabel{alg_desc:alg_main_loop_end}{{26}{6}{BuildSchedule\relax }{ALC@unique.26}{}}
\@writefile{loa}{\contentsline {algorithm}{\numberline {2}{\ignorespaces SortPlans\relax }}{6}{algorithm.2}}
\newlabel{alg:sortPlans}{{2}{6}{SortPlans\relax }{algorithm.2}{}}
\newlabel{alg:sortPlans_sortTopologically}{{1}{6}{SortPlans\relax }{ALC@unique.27}{}}
\newlabel{alg:set_F_of_frontiers}{{2}{6}{SortPlans\relax }{ALC@unique.28}{}}
\newlabel{alg:sortPlans_loopStart}{{4}{6}{SortPlans\relax }{ALC@unique.30}{}}
\newlabel{alg:sortPlans_sortByPriority}{{5}{6}{SortPlans\relax }{ALC@unique.31}{}}
\newlabel{alg:sortPlans_addToPu}{{6}{6}{SortPlans\relax }{ALC@unique.32}{}}
\newlabel{alg:sortPlans_loopEnd}{{7}{6}{SortPlans\relax }{ALC@unique.33}{}}
\@writefile{loa}{\contentsline {algorithm}{\numberline {3}{\ignorespaces SchedulePlan\relax }}{6}{algorithm.3}}
\newlabel{alg:schedulePlan}{{3}{6}{SchedulePlan\relax }{algorithm.3}{}}
\newlabel{alg_desc:alg_schedule_plan_schedule_task}{{2}{6}{SchedulePlan\relax }{ALC@unique.36}{}}
\newlabel{example_2}{{3}{7}{}{exmp.3}{}}
\@writefile{loa}{\contentsline {algorithm}{\numberline {4}{\ignorespaces ScheduleTask\relax }}{7}{algorithm.4}}
\newlabel{alg:scheduleTask}{{4}{7}{ScheduleTask\relax }{algorithm.4}{}}
\newlabel{alg_desc:alg_schedule_task_get_sk}{{1}{7}{ScheduleTask\relax }{ALC@unique.43}{}}
\newlabel{alg_desc:alg_schedule_task_get_previous_event}{{2}{7}{ScheduleTask\relax }{ALC@unique.44}{}}
\newlabel{alg_desc:alg_schedule_task_get_mu_and_f}{{3}{7}{ScheduleTask\relax }{ALC@unique.45}{}}
\newlabel{alg_desc:alg_schedule_task_loop_until_end}{{4}{7}{ScheduleTask\relax }{ALC@unique.46}{}}
\newlabel{alg_desc:alg_schedule_task_assign_nextf_to_g}{{5}{7}{ScheduleTask\relax }{ALC@unique.47}{}}
\newlabel{alg_desc:alg_schedule_task_check_constraints}{{6}{7}{ScheduleTask\relax }{ALC@unique.48}{}}
\newlabel{alg_desc:alg_schedule_task_end_while}{{12}{7}{ScheduleTask\relax }{ALC@unique.54}{}}
\newlabel{alg_desc:alg_schedule_task_check_final_constraints}{{13}{7}{ScheduleTask\relax }{ALC@unique.55}{}}
\newlabel{alg_desc:alg_schedule_task_remove_plan_from_events}{{14}{7}{ScheduleTask\relax }{ALC@unique.56}{}}
\newlabel{alg_desc:alg_schedule_task_mark_plan_as_unschedulable}{{15}{7}{ScheduleTask\relax }{ALC@unique.57}{}}
\newlabel{alg_desc:alg_schedule_task_add_to_solution}{{18}{7}{ScheduleTask\relax }{ALC@unique.60}{}}
\newlabel{alg_desc:alg_schedule_task_add_to_S}{{19}{7}{ScheduleTask\relax }{ALC@unique.61}{}}
\newlabel{alg_desc:alg_schedule_task_check_e_in_el}{{20}{7}{ScheduleTask\relax }{ALC@unique.62}{}}
\newlabel{alg_desc:alg_schedule_task_add_e_to_EL}{{21}{7}{ScheduleTask\relax }{ALC@unique.63}{}}
\newlabel{alg_desc:events_update_start}{{23}{7}{ScheduleTask\relax }{ALC@unique.65}{}}
\newlabel{alg_desc:alg_schedule_task_insert_task_in_Cf}{{24}{7}{ScheduleTask\relax }{ALC@unique.66}{}}
\newlabel{alg_desc:alg_schedule_task_insert_g_1}{{26}{7}{ScheduleTask\relax }{ALC@unique.68}{}}
\newlabel{alg_desc:alg_schedule_task_insert_g_2}{{29}{7}{ScheduleTask\relax }{ALC@unique.71}{}}
\newlabel{alg_desc:events_update_end}{{31}{7}{ScheduleTask\relax }{ALC@unique.73}{}}
\newlabel{alg_desc:alg_schedule_task_update_resources}{{32}{7}{ScheduleTask\relax }{ALC@unique.74}{}}
\@writefile{loa}{\contentsline {algorithm}{\numberline {5}{\ignorespaces SchedulePlanSet\relax }}{8}{algorithm.5}}
\newlabel{alg:schedulePlanWithSamePriority}{{5}{8}{SchedulePlanSet\relax }{algorithm.5}{}}
\newlabel{alg_schedule_multi:init_v}{{1}{8}{SchedulePlanSet\relax }{ALC@unique.76}{}}
\newlabel{alg_schedule_multi:plans_schedule_loop_start}{{3}{8}{SchedulePlanSet\relax }{ALC@unique.78}{}}
\newlabel{alg_schedule_multi:single_plan_test_loop_start}{{6}{8}{SchedulePlanSet\relax }{ALC@unique.81}{}}
\newlabel{alg_schedule_multi:schedule_pik_into_temp_solution}{{9}{8}{SchedulePlanSet\relax }{ALC@unique.84}{}}
\newlabel{alg_schedule_multi:calc_idle_time_sum}{{11}{8}{SchedulePlanSet\relax }{ALC@unique.86}{}}
\newlabel{alg_schedule_multi:remove_best_plan_from_v}{{17}{8}{SchedulePlanSet\relax }{ALC@unique.92}{}}
\newlabel{alg_schedule_multi:single_plan_test_loop_end}{{19}{8}{SchedulePlanSet\relax }{ALC@unique.94}{}}
\newlabel{alg_schedule_multi:schedule_best_plan}{{20}{8}{SchedulePlanSet\relax }{ALC@unique.95}{}}
\newlabel{alg_schedule_multi:remove_best_plan_from_v}{{24}{8}{SchedulePlanSet\relax }{ALC@unique.99}{}}
\newlabel{alg_schedule_multi:plans_schedule_loop_end}{{25}{8}{SchedulePlanSet\relax }{ALC@unique.100}{}}
\@writefile{loa}{\contentsline {algorithm}{\numberline {6}{\ignorespaces CheckConstraints\relax }}{8}{algorithm.6}}
\newlabel{alg:check_temporal_constraints}{{6}{8}{CheckConstraints\relax }{algorithm.6}{}}
\newlabel{alg_desc:check_temporal_constraint}{{1}{8}{CheckConstraints\relax }{ALC@unique.102}{}}
\@writefile{lot}{\contentsline {table}{\numberline {III}{\ignorespaces Descriptions of the functions used by the scheduling algorithm.\relax }}{8}{table.caption.8}}
\newlabel{table:table_of_functions}{{III}{8}{Descriptions of the functions used by the scheduling algorithm.\relax }{table.caption.8}{}}
\@writefile{lot}{\contentsline {table}{\numberline {IV}{\ignorespaces The parameters of the tasks of the plans in Example\nobreakspace  {}\ref  {example_2}.\relax }}{8}{table.caption.9}}
\newlabel{table:example_2_table}{{IV}{8}{The parameters of the tasks of the plans in Example~\ref {example_2}.\relax }{table.caption.9}{}}
\@writefile{lot}{\contentsline {table}{\numberline {V}{\ignorespaces Insertion of the plan $\Pi _3$ into a feasible schedule.\relax }}{9}{table.caption.10}}
\newlabel{tbl:example_insertion_plan_3}{{V}{9}{Insertion of the plan $\Pi _3$ into a feasible schedule.\relax }{table.caption.10}{}}
\@writefile{lot}{\contentsline {table}{\numberline {VI}{\ignorespaces Insertion of the plan $\Pi _4$ into a feasible schedule.\relax }}{9}{table.caption.11}}
\newlabel{tbl:example_insertion_plan_4}{{VI}{9}{Insertion of the plan $\Pi _4$ into a feasible schedule.\relax }{table.caption.11}{}}
\@writefile{lot}{\contentsline {table}{\numberline {VII}{\ignorespaces Insertion of the plan $\Pi _5$ into a feasible schedule.\relax }}{9}{table.caption.12}}
\newlabel{tbl:example_insertion_plan_5}{{VII}{9}{Insertion of the plan $\Pi _5$ into a feasible schedule.\relax }{table.caption.12}{}}
\@writefile{toc}{\contentsline {section}{\numberline {VI}Computational results}{9}{section.6}}
\@writefile{lot}{\contentsline {table}{\numberline {VIII}{\ignorespaces The benchmark used for evaluating the performance of the proposed method.\relax }}{10}{table.caption.13}}
\newlabel{table:benchmark_plans}{{VIII}{10}{The benchmark used for evaluating the performance of the proposed method.\relax }{table.caption.13}{}}
\@writefile{lot}{\contentsline {table}{\numberline {IX}{\ignorespaces Execution times of the five scenarios.\relax }}{10}{table.caption.14}}
\newlabel{table:experiments_duration}{{IX}{10}{Execution times of the five scenarios.\relax }{table.caption.14}{}}
\@writefile{toc}{\contentsline {section}{\numberline {VII}Future works}{10}{section.7}}
\@writefile{toc}{\contentsline {subsection}{\numberline {\unhbox \voidb@x \hbox {VII-A}}Variable resource availability}{10}{subsection.7.1}}
\newlabel{example_resource_usage}{{4}{10}{}{exmp.4}{}}
\@writefile{toc}{\contentsline {subsection}{\numberline {\unhbox \voidb@x \hbox {VII-B}}$p^k_i$ as function of time}{10}{subsection.7.2}}
\newlabel{fig:task_schedule_with_res_capacity_1}{{6a}{11}{\relax }{figure.caption.15}{}}
\newlabel{sub@fig:task_schedule_with_res_capacity_1}{{a}{11}{\relax }{figure.caption.15}{}}
\newlabel{fig:task_schedule_with_res_capacity_2}{{6b}{11}{\relax }{figure.caption.15}{}}
\newlabel{sub@fig:task_schedule_with_res_capacity_2}{{b}{11}{\relax }{figure.caption.15}{}}
\@writefile{lof}{\contentsline {figure}{\numberline {6}{\ignorespaces Scheduling of task $J^2_1$, which has a release time of $4$, into a resource with availability $B_1=1$ (\ref  {fig:task_schedule_with_res_capacity_1}) and a resource with availability $B_1=2$ (\ref  {fig:task_schedule_with_res_capacity_2}).\relax }}{11}{figure.caption.15}}
\newlabel{fig:varying_res_capacity}{{6}{11}{Scheduling of task $J^2_1$, which has a release time of $4$, into a resource with availability $B_1=1$ (\ref {fig:task_schedule_with_res_capacity_1}) and a resource with availability $B_1=2$ (\ref {fig:task_schedule_with_res_capacity_2}).\relax }{figure.caption.15}{}}
\newlabel{example_rpas_function_time}{{5}{11}{}{exmp.5}{}}
\@writefile{toc}{\contentsline {subsection}{\numberline {\unhbox \voidb@x \hbox {VII-C}}Alternative schedules}{11}{subsection.7.3}}
\@writefile{lof}{\contentsline {figure}{\numberline {7}{\ignorespaces An example of RPAS that has to communicate informations to an object $R$. The processing time of the tasks communicating with $R$ could vary according to the distance between the object $R$ and the RPAS.\relax }}{11}{figure.caption.16}}
\newlabel{fig:rpas}{{7}{11}{An example of RPAS that has to communicate informations to an object $R$. The processing time of the tasks communicating with $R$ could vary according to the distance between the object $R$ and the RPAS.\relax }{figure.caption.16}{}}
\@writefile{lof}{\contentsline {figure}{\numberline {8}{\ignorespaces An inverse Gaussian used to model the processing time $p(t)$ of the the operation of sending information to a fixed object for the RPAS in Figure\nobreakspace  {}\ref  {fig:rpas}.\relax }}{11}{figure.caption.17}}
\newlabel{fig:inv_gaussian}{{8}{11}{An inverse Gaussian used to model the processing time $p(t)$ of the the operation of sending information to a fixed object for the RPAS in Figure~\ref {fig:rpas}.\relax }{figure.caption.17}{}}
\bibstyle{ieeetr}
\bibdata{bibliography}
\bibcite{pinedo_scheduling_2012}{1}
\bibcite{klein_scheduling_2000}{2}
\bibcite{grivault_agent-based_2016}{3}
\bibcite{kemkemian_toward_2010}{4}
\bibcite{imai_airplane_2017}{5}
\bibcite{schwindt_handbook_2015}{6}
\bibcite{cormen_introduction_2001}{7}
\bibcite{kahn_topological_1962}{8}
\bibcite{graham_optimization_1979}{9}
\bibcite{brucker_resource-constrained_1999}{10}
\bibcite{artigues_resource-constrained_2007}{11}
\bibcite{peters_timsort_2002}{12}
\@writefile{lof}{\contentsline {figure}{\numberline {9}{\ignorespaces The graph representation of a feasible schedule with four plans (in blue), and two possible alternative schedule (yellow and green).\relax }}{12}{figure.caption.18}}
\newlabel{fig:graph_solution_representation}{{9}{12}{The graph representation of a feasible schedule with four plans (in blue), and two possible alternative schedule (yellow and green).\relax }{figure.caption.18}{}}
\@writefile{toc}{\contentsline {section}{\numberline {VIII}Conclusions}{12}{section.8}}
\@writefile{toc}{\contentsline {section}{References}{12}{section*.19}}
