PWD /home/davide/alg/nouvelle_pseudocode
INPUT /usr/share/texlive/texmf-dist/web2c/texmf.cnf
INPUT /usr/share/texlive/texmf-dist/web2c/texmf.cnf
INPUT /home/davide/.cache/texlive/texmf-var/web2c/pdftex/pdflatex.fmt
INPUT pseudocode.tex
OUTPUT pseudocode.log
INPUT /usr/share/texlive/texmf-dist/tex/latex/IEEEtran/IEEEtran.cls
INPUT /usr/share/texlive/texmf-dist/tex/latex/IEEEtran/IEEEtran.cls
INPUT /usr/share/texlive/texmf-dist/tex/latex/psnfss/ot1ptm.fd
INPUT /usr/share/texlive/texmf-dist/tex/latex/psnfss/ot1ptm.fd
INPUT /usr/share/texlive/texmf-dist/fonts/tfm/adobe/times/ptmr7t.tfm
INPUT /usr/share/texlive/texmf-dist/fonts/tfm/adobe/times/ptmr7t.tfm
INPUT /usr/share/texlive/texmf-dist/fonts/tfm/adobe/times/ptmr7t.tfm
INPUT /usr/share/texlive/texmf-dist/fonts/tfm/adobe/times/ptmb7t.tfm
INPUT /usr/share/texlive/texmf-dist/fonts/tfm/adobe/times/ptmri7t.tfm
INPUT /usr/share/texlive/texmf-dist/fonts/tfm/adobe/times/ptmbi7t.tfm
INPUT /usr/share/texlive/texmf-dist/fonts/tfm/adobe/times/ptmr7t.tfm
INPUT /usr/share/texlive/texmf-dist/fonts/tfm/adobe/times/ptmb7t.tfm
INPUT /usr/share/texlive/texmf-dist/fonts/tfm/adobe/times/ptmri7t.tfm
INPUT /usr/share/texlive/texmf-dist/fonts/tfm/adobe/times/ptmbi7t.tfm
INPUT /usr/share/texlive/texmf-dist/fonts/tfm/adobe/times/ptmr7t.tfm
INPUT /usr/share/texlive/texmf-dist/fonts/tfm/adobe/times/ptmb7t.tfm
INPUT /usr/share/texlive/texmf-dist/fonts/tfm/adobe/times/ptmri7t.tfm
INPUT /usr/share/texlive/texmf-dist/fonts/tfm/adobe/times/ptmbi7t.tfm
INPUT /usr/share/texlive/texmf-dist/fonts/tfm/adobe/times/ptmb7t.tfm
INPUT /usr/share/texlive/texmf-dist/fonts/tfm/adobe/times/ptmri7t.tfm
INPUT /usr/share/texlive/texmf-dist/fonts/tfm/adobe/times/ptmbi7t.tfm
INPUT /usr/share/texlive/texmf-dist/fonts/tfm/adobe/times/ptmb7t.tfm
INPUT /usr/share/texlive/texmf-dist/fonts/tfm/adobe/times/ptmri7t.tfm
INPUT /usr/share/texlive/texmf-dist/fonts/tfm/adobe/times/ptmbi7t.tfm
INPUT /usr/share/texlive/texmf-dist/fonts/tfm/adobe/times/ptmr7t.tfm
INPUT /usr/share/texlive/texmf-dist/fonts/tfm/adobe/times/ptmb7t.tfm
INPUT /usr/share/texlive/texmf-dist/fonts/tfm/adobe/times/ptmri7t.tfm
INPUT /usr/share/texlive/texmf-dist/fonts/tfm/adobe/times/ptmbi7t.tfm
INPUT /usr/share/texlive/texmf-dist/fonts/tfm/adobe/times/ptmr7t.tfm
INPUT /usr/share/texlive/texmf-dist/fonts/tfm/adobe/times/ptmb7t.tfm
INPUT /usr/share/texlive/texmf-dist/fonts/tfm/adobe/times/ptmri7t.tfm
INPUT /usr/share/texlive/texmf-dist/fonts/tfm/adobe/times/ptmbi7t.tfm
INPUT /usr/share/texlive/texmf-dist/fonts/tfm/adobe/times/ptmr7t.tfm
INPUT /usr/share/texlive/texmf-dist/fonts/tfm/adobe/times/ptmb7t.tfm
INPUT /usr/share/texlive/texmf-dist/fonts/tfm/adobe/times/ptmri7t.tfm
INPUT /usr/share/texlive/texmf-dist/fonts/tfm/adobe/times/ptmbi7t.tfm
INPUT /usr/share/texlive/texmf-dist/fonts/tfm/adobe/times/ptmr7t.tfm
INPUT /usr/share/texlive/texmf-dist/fonts/tfm/adobe/times/ptmb7t.tfm
INPUT /usr/share/texlive/texmf-dist/fonts/tfm/adobe/times/ptmri7t.tfm
INPUT /usr/share/texlive/texmf-dist/fonts/tfm/adobe/times/ptmbi7t.tfm
INPUT /usr/share/texlive/texmf-dist/tex/latex/xcolor/xcolor.sty
INPUT /usr/share/texlive/texmf-dist/tex/latex/xcolor/xcolor.sty
INPUT /usr/share/texlive/texmf-dist/tex/latex/graphics-cfg/color.cfg
INPUT /usr/share/texlive/texmf-dist/tex/latex/graphics-cfg/color.cfg
INPUT /usr/share/texlive/texmf-dist/tex/latex/graphics-def/pdftex.def
INPUT /usr/share/texlive/texmf-dist/tex/latex/graphics-def/pdftex.def
INPUT /usr/share/texlive/texmf-dist/tex/generic/oberdiek/infwarerr.sty
INPUT /usr/share/texlive/texmf-dist/tex/generic/oberdiek/infwarerr.sty
INPUT /usr/share/texlive/texmf-dist/tex/generic/oberdiek/ltxcmds.sty
INPUT /usr/share/texlive/texmf-dist/tex/generic/oberdiek/ltxcmds.sty
INPUT /usr/share/texlive/texmf-dist/tex/latex/colortbl/colortbl.sty
INPUT /usr/share/texlive/texmf-dist/tex/latex/colortbl/colortbl.sty
INPUT /usr/share/texlive/texmf-dist/tex/latex/tools/array.sty
INPUT /usr/share/texlive/texmf-dist/tex/latex/tools/array.sty
INPUT /usr/share/texlive/texmf-dist/tex/latex/base/inputenc.sty
INPUT /usr/share/texlive/texmf-dist/tex/latex/base/inputenc.sty
INPUT /usr/share/texlive/texmf-dist/tex/latex/base/utf8.def
INPUT /usr/share/texlive/texmf-dist/tex/latex/base/utf8.def
INPUT /usr/share/texlive/texmf-dist/tex/latex/base/t1enc.dfu
INPUT /usr/share/texlive/texmf-dist/tex/latex/base/t1enc.dfu
INPUT /usr/share/texlive/texmf-dist/tex/latex/base/ot1enc.dfu
INPUT /usr/share/texlive/texmf-dist/tex/latex/base/ot1enc.dfu
INPUT /usr/share/texlive/texmf-dist/tex/latex/base/omsenc.dfu
INPUT /usr/share/texlive/texmf-dist/tex/latex/base/omsenc.dfu
INPUT /usr/share/texlive/texmf-dist/tex/latex/algorithms/algorithm.sty
INPUT /usr/share/texlive/texmf-dist/tex/latex/algorithms/algorithm.sty
INPUT /usr/share/texlive/texmf-dist/tex/latex/float/float.sty
INPUT /usr/share/texlive/texmf-dist/tex/latex/float/float.sty
INPUT /usr/share/texlive/texmf-dist/tex/latex/base/ifthen.sty
INPUT /usr/share/texlive/texmf-dist/tex/latex/base/ifthen.sty
INPUT /usr/share/texlive/texmf-dist/tex/latex/algorithms/algorithmic.sty
INPUT /usr/share/texlive/texmf-dist/tex/latex/algorithms/algorithmic.sty
INPUT /usr/share/texlive/texmf-dist/tex/latex/graphics/keyval.sty
INPUT /usr/share/texlive/texmf-dist/tex/latex/graphics/keyval.sty
INPUT /usr/share/texlive/texmf-dist/tex/latex/soul/soul.sty
INPUT /usr/share/texlive/texmf-dist/tex/latex/soul/soul.sty
INPUT /usr/share/texlive/texmf-dist/fonts/tfm/jknappen/ec/ectt1000.tfm
INPUT /usr/share/texlive/texmf-dist/tex/latex/mathtools/empheq.sty
INPUT /usr/share/texlive/texmf-dist/tex/latex/mathtools/empheq.sty
INPUT /usr/share/texlive/texmf-dist/tex/latex/mathtools/mhsetup.sty
INPUT /usr/share/texlive/texmf-dist/tex/latex/mathtools/mhsetup.sty
INPUT /usr/share/texlive/texmf-dist/tex/latex/mathtools/mathtools.sty
INPUT /usr/share/texlive/texmf-dist/tex/latex/mathtools/mathtools.sty
INPUT /usr/share/texlive/texmf-dist/tex/latex/tools/calc.sty
INPUT /usr/share/texlive/texmf-dist/tex/latex/tools/calc.sty
INPUT /usr/share/texlive/texmf-dist/tex/latex/amsmath/amsmath.sty
INPUT /usr/share/texlive/texmf-dist/tex/latex/amsmath/amsmath.sty
INPUT /usr/share/texlive/texmf-dist/tex/latex/amsmath/amstext.sty
INPUT /usr/share/texlive/texmf-dist/tex/latex/amsmath/amstext.sty
INPUT /usr/share/texlive/texmf-dist/tex/latex/amsmath/amsgen.sty
INPUT /usr/share/texlive/texmf-dist/tex/latex/amsmath/amsgen.sty
INPUT /usr/share/texlive/texmf-dist/tex/latex/amsmath/amsbsy.sty
INPUT /usr/share/texlive/texmf-dist/tex/latex/amsmath/amsbsy.sty
INPUT /usr/share/texlive/texmf-dist/tex/latex/amsmath/amsopn.sty
INPUT /usr/share/texlive/texmf-dist/tex/latex/amsmath/amsopn.sty
INPUT /usr/share/texlive/texmf-dist/tex/latex/amscls/amsthm.sty
INPUT /usr/share/texlive/texmf-dist/tex/latex/amscls/amsthm.sty
INPUT /usr/share/texlive/texmf-dist/tex/latex/amsfonts/amsfonts.sty
INPUT /usr/share/texlive/texmf-dist/tex/latex/amsfonts/amsfonts.sty
INPUT /usr/share/texlive/texmf-dist/tex/latex/graphics/graphicx.sty
INPUT /usr/share/texlive/texmf-dist/tex/latex/graphics/graphicx.sty
INPUT /usr/share/texlive/texmf-dist/tex/latex/graphics/graphics.sty
INPUT /usr/share/texlive/texmf-dist/tex/latex/graphics/graphics.sty
INPUT /usr/share/texlive/texmf-dist/tex/latex/graphics/trig.sty
INPUT /usr/share/texlive/texmf-dist/tex/latex/graphics/trig.sty
INPUT /usr/share/texlive/texmf-dist/tex/latex/graphics-cfg/graphics.cfg
INPUT /usr/share/texlive/texmf-dist/tex/latex/graphics-cfg/graphics.cfg
INPUT /usr/share/texlive/texmf-dist/tex/latex/caption/subcaption.sty
INPUT /usr/share/texlive/texmf-dist/tex/latex/caption/subcaption.sty
INPUT /usr/share/texlive/texmf-dist/tex/latex/caption/caption.sty
INPUT /usr/share/texlive/texmf-dist/tex/latex/caption/caption.sty
INPUT /usr/share/texlive/texmf-dist/tex/latex/caption/caption3.sty
INPUT /usr/share/texlive/texmf-dist/tex/latex/caption/caption3.sty
INPUT /usr/share/texlive/texmf-dist/tex/latex/framed/framed.sty
INPUT /usr/share/texlive/texmf-dist/tex/latex/framed/framed.sty
INPUT pseudocode.aux
INPUT pseudocode.aux
OUTPUT pseudocode.aux
INPUT /usr/share/texlive/texmf-dist/tex/context/base/mkii/supp-pdf.mkii
INPUT /usr/share/texlive/texmf-dist/tex/context/base/mkii/supp-pdf.mkii
INPUT /usr/share/texlive/texmf-dist/tex/generic/oberdiek/pdftexcmds.sty
INPUT /usr/share/texlive/texmf-dist/tex/generic/oberdiek/pdftexcmds.sty
INPUT /usr/share/texlive/texmf-dist/tex/generic/oberdiek/ifluatex.sty
INPUT /usr/share/texlive/texmf-dist/tex/generic/oberdiek/ifluatex.sty
INPUT /usr/share/texlive/texmf-dist/tex/generic/oberdiek/ifpdf.sty
INPUT /usr/share/texlive/texmf-dist/tex/generic/oberdiek/ifpdf.sty
INPUT /usr/share/texlive/texmf-dist/tex/latex/oberdiek/epstopdf-base.sty
INPUT /usr/share/texlive/texmf-dist/tex/latex/oberdiek/epstopdf-base.sty
INPUT /usr/share/texlive/texmf-dist/tex/latex/oberdiek/grfext.sty
INPUT /usr/share/texlive/texmf-dist/tex/latex/oberdiek/grfext.sty
INPUT /usr/share/texlive/texmf-dist/tex/generic/oberdiek/kvdefinekeys.sty
INPUT /usr/share/texlive/texmf-dist/tex/generic/oberdiek/kvdefinekeys.sty
INPUT /usr/share/texlive/texmf-dist/tex/latex/oberdiek/kvoptions.sty
INPUT /usr/share/texlive/texmf-dist/tex/latex/oberdiek/kvoptions.sty
INPUT /usr/share/texlive/texmf-dist/tex/generic/oberdiek/kvsetkeys.sty
INPUT /usr/share/texlive/texmf-dist/tex/generic/oberdiek/kvsetkeys.sty
INPUT /usr/share/texlive/texmf-dist/tex/generic/oberdiek/etexcmds.sty
INPUT /usr/share/texlive/texmf-dist/tex/generic/oberdiek/etexcmds.sty
INPUT /usr/share/texlive/texmf-dist/tex/latex/latexconfig/epstopdf-sys.cfg
INPUT /usr/share/texlive/texmf-dist/tex/latex/latexconfig/epstopdf-sys.cfg
INPUT /usr/share/texlive/texmf-dist/fonts/tfm/adobe/times/ptmrc7t.tfm
INPUT /usr/share/texlive/texmf-dist/fonts/tfm/public/cm/cmr10.tfm
INPUT /usr/share/texlive/texmf-dist/fonts/tfm/public/cm/cmr8.tfm
INPUT /usr/share/texlive/texmf-dist/fonts/tfm/public/cm/cmmi10.tfm
INPUT /usr/share/texlive/texmf-dist/fonts/tfm/public/cm/cmmi8.tfm
INPUT /usr/share/texlive/texmf-dist/fonts/tfm/public/cm/cmsy10.tfm
INPUT /usr/share/texlive/texmf-dist/fonts/tfm/public/cm/cmsy8.tfm
INPUT /usr/share/texlive/texmf-dist/fonts/tfm/public/cm/cmex10.tfm
INPUT /usr/share/texlive/texmf-dist/fonts/tfm/public/amsfonts/cmextra/cmex8.tfm
INPUT /usr/share/texlive/texmf-dist/fonts/tfm/public/amsfonts/cmextra/cmex7.tfm
INPUT /usr/share/texlive/texmf-dist/tex/latex/amsfonts/umsa.fd
INPUT /usr/share/texlive/texmf-dist/tex/latex/amsfonts/umsa.fd
INPUT /usr/share/texlive/texmf-dist/fonts/tfm/public/amsfonts/symbols/msam10.tfm
INPUT /usr/share/texlive/texmf-dist/fonts/tfm/public/amsfonts/symbols/msam7.tfm
INPUT /usr/share/texlive/texmf-dist/fonts/tfm/public/amsfonts/symbols/msam5.tfm
INPUT /usr/share/texlive/texmf-dist/tex/latex/amsfonts/umsb.fd
INPUT /usr/share/texlive/texmf-dist/tex/latex/amsfonts/umsb.fd
INPUT /usr/share/texlive/texmf-dist/fonts/tfm/public/amsfonts/symbols/msbm10.tfm
INPUT /usr/share/texlive/texmf-dist/fonts/tfm/public/amsfonts/symbols/msbm7.tfm
INPUT /usr/share/texlive/texmf-dist/fonts/tfm/public/amsfonts/symbols/msbm5.tfm
INPUT /usr/share/texlive/texmf-dist/fonts/tfm/adobe/times/ptmr7t.tfm
INPUT /usr/share/texlive/texmf-dist/fonts/tfm/adobe/times/ptmr7t.tfm
INPUT /usr/share/texlive/texmf-dist/fonts/tfm/public/cm/cmr9.tfm
INPUT /usr/share/texlive/texmf-dist/fonts/tfm/public/cm/cmr6.tfm
INPUT /usr/share/texlive/texmf-dist/fonts/tfm/public/cm/cmmi9.tfm
INPUT /usr/share/texlive/texmf-dist/fonts/tfm/public/cm/cmmi6.tfm
INPUT /usr/share/texlive/texmf-dist/fonts/tfm/public/cm/cmsy9.tfm
INPUT /usr/share/texlive/texmf-dist/fonts/tfm/public/cm/cmsy6.tfm
INPUT /usr/share/texlive/texmf-dist/fonts/tfm/public/amsfonts/cmextra/cmex9.tfm
INPUT /usr/share/texlive/texmf-dist/fonts/tfm/public/amsfonts/cmextra/cmex7.tfm
INPUT /usr/share/texlive/texmf-dist/fonts/tfm/public/amsfonts/cmextra/cmex7.tfm
INPUT /usr/share/texlive/texmf-dist/fonts/tfm/public/amsfonts/symbols/msam10.tfm
INPUT /usr/share/texlive/texmf-dist/fonts/tfm/public/amsfonts/symbols/msam7.tfm
INPUT /usr/share/texlive/texmf-dist/fonts/tfm/public/amsfonts/symbols/msam5.tfm
INPUT /usr/share/texlive/texmf-dist/fonts/tfm/public/amsfonts/symbols/msbm10.tfm
INPUT /usr/share/texlive/texmf-dist/fonts/tfm/public/amsfonts/symbols/msbm7.tfm
INPUT /usr/share/texlive/texmf-dist/fonts/tfm/public/amsfonts/symbols/msbm5.tfm
INPUT sched.pdf
INPUT ./sched.pdf
OUTPUT pseudocode.pdf
INPUT ./sched.pdf
INPUT /usr/share/texlive/texmf-dist/fonts/vf/adobe/times/ptmr7t.vf
INPUT /usr/share/texlive/texmf-dist/fonts/tfm/adobe/times/ptmr8r.tfm
INPUT /usr/share/texlive/texmf-dist/fonts/map/pdftex/updmap/pdftex.map
INPUT /usr/share/texlive/texmf-dist/fonts/vf/adobe/times/ptmrc7t.vf
INPUT /usr/share/texlive/texmf-dist/fonts/tfm/adobe/times/ptmr8r.tfm
INPUT /usr/share/texlive/texmf-dist/fonts/tfm/adobe/times/ptmr8r.tfm
INPUT /usr/share/texlive/texmf-dist/fonts/vf/adobe/times/ptmr7t.vf
INPUT /usr/share/texlive/texmf-dist/fonts/vf/adobe/times/ptmb7t.vf
INPUT /usr/share/texlive/texmf-dist/fonts/tfm/adobe/times/ptmb8r.tfm
INPUT /usr/share/texlive/texmf-dist/fonts/vf/adobe/times/ptmr7t.vf
INPUT /usr/share/texlive/texmf-dist/fonts/tfm/adobe/times/ptmr8r.tfm
INPUT /usr/share/texlive/texmf-dist/fonts/vf/adobe/times/ptmri7t.vf
INPUT /usr/share/texlive/texmf-dist/fonts/tfm/adobe/times/ptmri8r.tfm
INPUT pseudocode.bbl
INPUT pseudocode.bbl
INPUT pseudocode.aux
INPUT /usr/share/texlive/texmf-dist/fonts/enc/dvips/base/8r.enc
INPUT /usr/share/texlive/texmf-dist/fonts/type1/public/amsfonts/cm/cmex10.pfb
INPUT /usr/share/texlive/texmf-dist/fonts/type1/public/amsfonts/cm/cmmi10.pfb
INPUT /usr/share/texlive/texmf-dist/fonts/type1/public/amsfonts/cm/cmmi5.pfb
INPUT /usr/share/texlive/texmf-dist/fonts/type1/public/amsfonts/cm/cmmi8.pfb
INPUT /usr/share/texlive/texmf-dist/fonts/type1/public/amsfonts/cm/cmmi9.pfb
INPUT /usr/share/texlive/texmf-dist/fonts/type1/public/amsfonts/cm/cmr10.pfb
INPUT /usr/share/texlive/texmf-dist/fonts/type1/public/amsfonts/cm/cmr6.pfb
INPUT /usr/share/texlive/texmf-dist/fonts/type1/public/amsfonts/cm/cmr8.pfb
INPUT /usr/share/texlive/texmf-dist/fonts/type1/public/amsfonts/cm/cmr9.pfb
INPUT /usr/share/texlive/texmf-dist/fonts/type1/public/amsfonts/cm/cmsy10.pfb
INPUT /usr/share/texlive/texmf-dist/fonts/type1/public/amsfonts/cm/cmsy8.pfb
INPUT /usr/share/texlive/texmf-dist/fonts/type1/public/amsfonts/cm/cmsy9.pfb
INPUT /usr/share/texlive/texmf-dist/fonts/type1/urw/times/utmb8a.pfb
INPUT /usr/share/texlive/texmf-dist/fonts/type1/urw/times/utmr8a.pfb
INPUT /usr/share/texlive/texmf-dist/fonts/type1/urw/times/utmri8a.pfb
