\relax 
\citation{artigues_resource-constrained_2007}
\@writefile{toc}{\contentsline {section}{\numberline {I}Mathematical formulation}{1}}
\newlabel{eq:scheduled_plan}{{1}{1}}
\newlabel{eq:only_one_starting_time_for_task}{{3}{1}}
\newlabel{eq:scheduled_plan_condition}{{4}{1}}
\newlabel{eq:precedence_constraints}{{5}{1}}
\newlabel{eq:resource_constraints}{{6}{1}}
\@writefile{loa}{\contentsline {algorithm}{\numberline {1}{\ignorespaces BuildSchedule\relax }}{1}}
\providecommand*\caption@xref[2]{\@setref\relax\@undefined{#1}}
\newlabel{alg:scheduleMain}{{1}{1}}
\newlabel{alg_desc:xs_init}{{1}{1}}
\newlabel{alg_desc:xf_init}{{2}{1}}
\newlabel{alg_desc:Sl_init}{{3}{1}}
\newlabel{alg_desc:Sw_init}{{4}{1}}
\newlabel{alg_desc:EL_init}{{5}{1}}
\newlabel{alg_desc:sort_plans_by_priority}{{6}{1}}
\newlabel{alg_desc:alg_main_loop}{{7}{1}}
\newlabel{alg_desc:alg_main_pop_plan}{{8}{1}}
\newlabel{alg_desc:alg_main_alpha}{{9}{1}}
\newlabel{alg_desc:alg_main_check_priority}{{11}{1}}
\newlabel{alg_desc:alg_main_schedule_single_plan}{{12}{1}}
\newlabel{alg_desc:alg_main_check_plan_scheduled}{{13}{1}}
\newlabel{alg_desc:alg_main_get_plans_with_same_priority}{{19}{1}}
\newlabel{alg_desc:alg_main_schedule_plans_with_same_priority}{{20}{1}}
\newlabel{alg_desc:alg_main_remove_unscheduled_plans}{{25}{1}}
\newlabel{alg_desc:alg_main_update_feasible_solution}{{26}{1}}
\@writefile{loa}{\contentsline {algorithm}{\numberline {2}{\ignorespaces SchedulePlan\relax }}{1}}
\newlabel{alg:schedulePlan}{{2}{1}}
\newlabel{alg_desc:alg_schedule_plan_schedule_task}{{2}{1}}
\@writefile{lot}{\contentsline {table}{\numberline {I}{\ignorespaces Insertion of the plan $\Pi _3$ into a feasible scheduling.\relax }}{2}}
\@writefile{loa}{\contentsline {algorithm}{\numberline {3}{\ignorespaces schedulePlanSet\relax }}{2}}
\newlabel{alg:schedulePlanWithSamePriority}{{3}{2}}
\newlabel{alg_schedule_multi:init_v}{{1}{2}}
\newlabel{alg_schedule_multi:plans_schedule_loop_start}{{3}{2}}
\newlabel{alg_schedule_multi:single_plan_test_loop_start}{{6}{2}}
\newlabel{alg_schedule_multi:remove_best_plan_from_v}{{17}{2}}
\newlabel{alg_schedule_multi:single_plan_test_loop_end}{{19}{2}}
\newlabel{alg_schedule_multi:schedule_best_plan}{{20}{2}}
\newlabel{alg_schedule_multi:remove_best_plan_from_v}{{24}{2}}
\newlabel{alg_schedule_multi:plans_schedule_loop_end}{{25}{2}}
\@writefile{toc}{\contentsline {subsection}{\numberline {\unhbox \voidb@x \hbox {I-A}}descrizione}{2}}
\@writefile{loa}{\contentsline {algorithm}{\numberline {4}{\ignorespaces ScheduleTask\relax }}{2}}
\newlabel{alg:scheduleTask}{{4}{2}}
\newlabel{alg_desc:alg_schedule_task_get_sk}{{1}{2}}
\newlabel{alg_desc:alg_schedule_task_get_previous_event}{{2}{2}}
\newlabel{alg_desc:alg_schedule_task_get_mu_and_f}{{3}{2}}
\newlabel{alg_desc:alg_schedule_task_loop_until_end}{{4}{2}}
\newlabel{alg_desc:alg_schedule_task_assign_nextf_to_g}{{5}{2}}
\newlabel{alg_desc:alg_schedule_task_check_constraints}{{6}{2}}
\newlabel{alg_desc:alg_schedule_task_end_while}{{12}{2}}
\newlabel{alg_desc:alg_schedule_task_check_final_constraints}{{13}{2}}
\newlabel{alg_desc:alg_schedule_task_add_to_solution}{{17}{2}}
\newlabel{alg_desc:alg_schedule_task_add_to_S}{{18}{2}}
\newlabel{alg_desc:events_update_start}{{19}{2}}
\newlabel{alg_desc:alg_schedule_task_insert_g_1}{{22}{2}}
\newlabel{alg_desc:alg_schedule_task_insert_g_2}{{25}{2}}
\newlabel{alg_desc:events_update_end}{{27}{2}}
\newlabel{alg_desc:alg_schedule_task_update_resources}{{28}{2}}
\citation{goodrich_data_2014}
\citation{cormen_introduction_2001}
\citation{peters_timsort_2002}
\bibdata{bibliography}
\@writefile{loa}{\contentsline {algorithm}{\numberline {5}{\ignorespaces CheckConstraints\relax }}{3}}
\newlabel{alg:check_temporal_constraints}{{5}{3}}
\newlabel{alg_desc:check_temporal_constraint}{{1}{3}}
\@writefile{loa}{\contentsline {algorithm}{\numberline {6}{\ignorespaces SortPlans\relax }}{3}}
\newlabel{alg:sortPlans}{{6}{3}}
\newlabel{alg:sortPlans_getFrontiers}{{1}{3}}
\newlabel{alg:sortPlans_sortTopologically}{{2}{3}}
\newlabel{alg:sortPlans_loopStart}{{4}{3}}
\newlabel{alg:sortPlans_sortByPriority}{{5}{3}}
\newlabel{alg:sortPlans_loopEnd}{{7}{3}}
\@writefile{toc}{\contentsline {subsection}{\numberline {\unhbox \voidb@x \hbox {I-B}}Complexity of the algorithm}{3}}
\@writefile{toc}{\contentsline {section}{\numberline {II}Conclusions and future works}{3}}
